Einführung ins Tidymodeling
…
#> Rows: 72 Columns: 3
#> ── Column specification ──────────────────────────────────────────────
#> Delimiter: ","
#> chr (1): TREAT
#> dbl (2): IV, SUTW
#> 
#> ℹ Use `spec()` to retrieve the full column specification for this data.
#> ℹ Specify the column types or set `show_col_types = FALSE` to quiet this message.

urchins

## # A tibble: 72 × 3
##    food_regime initial_volume width
##    <fct>                <dbl> <dbl>
##  1 Initial                3.5 0.01 
##  2 Initial                5   0.02 
##  3 Initial                8   0.061
##  4 Initial               10   0.051
##  5 Initial               13   0.041
##  6 Initial               13   0.061
##  7 Initial               15   0.041
##  8 Initial               15   0.071
##  9 Initial               16   0.092
## 10 Initial               17   0.051
## # … with 62 more rows
…
## 'data.frame':    72 obs. of  3 variables:
##  $ food_regime   : Factor w/ 3 levels "Initial","Low",..: 1 1 1 1 1 1 1 1 1 1 ...
##  $ initial_volume: num  3.5 5 8 10 13 13 15 15 16 17 ...
##  $ width         : num  0.01 0.02 0.061 0.051 0.041 0.061 0.041 0.071 0.092 0.051 ...

str(as.matrix(urchins))

##  chr [1:72, 1:3] "Initial" "Initial" "Initial" "Initial" "Initial" ...
##  - attr(*, "dimnames")=List of 2
##   ..$ : NULL
##   ..$ : chr [1:3] "food_regime" "initial_volume" "width"

as_tibble(urchins)

## # A tibble: 72 × 3
##    food_regime initial_volume width
##    <fct>                <dbl> <dbl>
##  1 Initial                3.5 0.01 
##  2 Initial                5   0.02 
##  3 Initial                8   0.061
##  4 Initial               10   0.051
##  5 Initial               13   0.041
##  6 Initial               13   0.061
##  7 Initial               15   0.041
##  8 Initial               15   0.071
##  9 Initial               16   0.092
## 10 Initial               17   0.051
## # … with 62 more rows
…
=> https://www.tidymodels.org/start/models/

library(broom.mixed) # for converting bayesian models to tidy tibbles
library(dotwhisker)  # for visualizing regression results

## Registered S3 method overwritten by 'parameters':
##   method                         from      
##   format.parameters_distribution datawizard

EDA

urchins

## # A tibble: 72 × 3
##    food_regime initial_volume width
##    <fct>                <dbl> <dbl>
##  1 Initial                3.5 0.01 
##  2 Initial                5   0.02 
##  3 Initial                8   0.061
##  4 Initial               10   0.051
##  5 Initial               13   0.041
##  6 Initial               13   0.061
##  7 Initial               15   0.041
##  8 Initial               15   0.071
##  9 Initial               16   0.092
## 10 Initial               17   0.051
## # … with 62 more rows
…
